{
	"info": {
		"_postman_id": "972e2504-b0e7-44ee-864e-2fa32471534c",
		"name": "s38-activity",
		"schema": "https://schema.getpostman.com/json/collection/v2.1.0/collection.json",
		"_exporter_id": "22132493"
	},
	"item": [
		{
			"name": "post userId",
			"request": {
				"method": "POST",
				"header": [],
				"body": {
					"mode": "raw",
					"raw": "{\r\n    \"id\":\"62e3af20b80dc9fd9e84db5a\"\r\n}",
					"options": {
						"raw": {
							"language": "json"
						}
					}
				},
				"url": {
					"raw": "http://localhost:4000/users/details",
					"protocol": "http",
					"host": [
						"localhost"
					],
					"port": "4000",
					"path": [
						"users",
						"details"
					]
				}
			},
			"response": []
		}
	]
}